…
## Overview

What is this analysis about?

### Summary of Results

- 

<!-- -->

      range(start_month)
    1                  1
    2                  1
    # A tibble: 5,316 × 3
    # Groups:   tag_serial_number [2,696]
       tag_serial_number state_province_long     n
       <fct>             <fct>               <int>
     1 539708            California             13
     2 539708            Washington             12
     3 539709            California             13
     4 539709            Washington             10
     5 539710            California             11
     6 539710            Washington             10
     7 539711            California             11
     8 539711            Washington              8
     9 539712            California             10
    10 539712            Washington              6
    # ℹ 5,306 more rows
…
